[gd_resource type="DynamicFont" load_steps=2 format=2]

[ext_resource path="res://Assets/Kenney Game Assets 2 version 21/Fonts/Kenney Pixel.ttf" type="DynamicFontData" id=1]

[resource]
size = 35
font_data = ExtResource( 1 )
